[gd_scene load_steps=4 format=2]

[ext_resource path="res://scenes/board_logic/node/arrow/arrow.gd" type="Script" id=1]
[ext_resource path="res://scenes/board_logic/node/arrow/arrow.png" type="Texture" id=2]

[sub_resource type="BoxShape" id=1]

extents = Vector3( 0.724517, 0.1, 1.03621 )

[node name="Arrow" type="Area" index="0" groups=[
"arrows",
]]

input_ray_pickable = true
input_capture_on_drag = true
space_override = 0
gravity_point = false
gravity_distance_scale = 0.0
gravity_vec = Vector3( 0, -1, 0 )
gravity = 9.8
linear_damp = 0.1
angular_damp = 1.0
priority = 0.0
monitoring = true
monitorable = true
collision_layer = 1
collision_mask = 1
audio_bus_override = false
audio_bus_name = "Master"
reverb_bus_enable = false
reverb_bus_name = "Master"
reverb_bus_amount = 0.0
reverb_bus_uniformity = 0.0
script = ExtResource( 1 )
_sections_unfolded = [ "Flags", "Transform" ]

[node name="Sprite" type="Sprite3D" parent="." index="0"]

transform = Transform( 1, 0, 0, 0, -4.37114e-08, 1, 0, -1, -4.37114e-08, 0, 0.2, 0 )
layers = 1
material_override = null
cast_shadow = 1
extra_cull_margin = 0.0
use_in_baked_light = false
lod_min_distance = 0.0
lod_min_hysteresis = 0.0
lod_max_distance = 0.0
lod_max_hysteresis = 0.0
centered = true
offset = Vector2( 0, -330 )
flip_h = false
flip_v = true
modulate = Color( 1, 0.5, 0.5, 0.3 )
opacity = 1.0
pixel_size = 0.005
axis = 2
transparent = true
shaded = true
double_sided = false
alpha_cut = 0
texture = ExtResource( 2 )
vframes = 1
hframes = 1
frame = 0
region_enabled = false
region_rect = Rect2( 0, 0, 0, 0 )
_sections_unfolded = [ "Transform" ]

[node name="Shape" type="CollisionShape" parent="." index="1"]

transform = Transform( 1, 0, 0, 0, 1, 0, 0, 0, 1, 0, 0.140164, 1.60022 )
shape = SubResource( 1 )
disabled = false

[connection signal="input_event" from="." to="." method="_on_Arrow_input_event"]

[connection signal="mouse_entered" from="." to="." method="_on_Arrow_mouse_entered"]

[connection signal="mouse_exited" from="." to="." method="_on_Arrow_mouse_exited"]


